<svg width="45" height="45" viewBox="0 0 45 45" fill="none" xmlns="http://www.w3.org/2000/svg">
<path d="M34.2119 29.7682C32.7418 28.3167 30.9064 28.3167 29.4456 29.7682C28.3313 30.8731 27.2169 31.9781 26.1214 33.1018C25.8217 33.4108 25.5689 33.4763 25.2037 33.2703C24.4826 32.877 23.7148 32.5587 23.0218 32.1279C19.7912 30.0959 17.085 27.4833 14.6878 24.543C13.4986 23.0822 12.4404 21.5184 11.7007 19.758C11.5509 19.4022 11.5789 19.1681 11.8692 18.8778C12.9836 17.8009 14.0698 16.6959 15.1654 15.591C16.6917 14.0553 16.6917 12.2574 15.156 10.7123C14.2852 9.83207 13.4143 8.97058 12.5434 8.09036C11.6445 7.19141 10.7549 6.28309 9.84659 5.3935C8.37643 3.9608 6.54107 3.9608 5.08028 5.40287C3.95659 6.50783 2.87972 7.64088 1.7373 8.72711C0.67916 9.72907 0.145408 10.9558 0.0330388 12.3885C-0.144879 14.7201 0.42633 16.9207 1.23164 19.065C2.87972 23.5036 5.38929 27.4459 8.43261 31.0604C12.5434 35.9485 17.4502 39.8158 23.1904 42.6063C25.7749 43.8611 28.453 44.8256 31.3652 44.9848C33.3691 45.0972 35.1109 44.5915 36.5061 43.0277C37.4612 41.9602 38.5381 40.9863 39.5494 39.9656C41.0477 38.4487 41.0571 36.6133 39.5682 35.1151C37.789 33.3265 36.0005 31.5473 34.2119 29.7682Z" fill="#F1A33A"/>
<path d="M32.4231 22.3052L35.8784 21.7153C35.3353 18.5409 33.837 15.6661 31.5616 13.3813C29.155 10.9747 26.1117 9.45772 22.7593 8.98952L22.2724 12.4636C24.8662 12.8288 27.226 13.9993 29.0894 15.8627C30.8499 17.6232 32.0017 19.8518 32.4231 22.3052Z" fill="#F1A33A"/>
<path d="M37.8267 7.28525C33.8376 3.29615 28.7903 0.777218 23.2187 0L22.7318 3.47407C27.5449 4.14829 31.9085 6.33011 35.3545 9.76673C38.6226 13.0348 40.767 17.1644 41.5442 21.7059L44.9995 21.116C44.0912 15.8534 41.6097 11.0777 37.8267 7.28525Z" fill="#F1A33A"/>
</svg>
