<svg width="51" height="43" viewBox="0 0 51 43" fill="none" xmlns="http://www.w3.org/2000/svg">
<path d="M15.3707 13.2185V20.7181C15.3707 24.2992 18.2962 27.2024 21.8832 27.2024C25.4702 27.2024 28.3957 24.2992 28.3957 20.7181V17.4524H39.0332C39.504 17.4524 39.8707 17.8246 39.8707 18.2806V21.9368C39.8707 22.3928 39.504 22.7649 39.0332 22.7649H38.4207H37.4207V23.7649V28.6399C37.4207 29.4311 36.7784 30.0774 35.9707 30.0774H34.7457H33.7457V31.0774C33.7457 33.2092 32.0009 34.9524 29.8457 34.9524H19.3873H19.1205L18.8892 35.0853L10.974 39.632C10.9736 39.6322 10.9733 39.6324 10.9729 39.6326C10.2733 40.0321 9.38505 39.7904 8.99065 39.1082L8.98988 39.1069L2.86488 28.5494L2.86318 28.5465C2.46493 27.8654 2.69906 26.9872 3.39235 26.5905L3.39387 26.5896L9.51887 23.0705L10.0207 22.7822V22.2034V18.6005C10.0207 17.2473 10.7379 15.9823 11.9117 15.2865L11.9149 15.2846L15.3707 13.2185ZM44.3207 18.7236V18.2806C44.3207 15.3698 41.9464 13.0149 39.0332 13.0149H24.9457H23.9457V14.0149V20.7181C23.9457 21.8444 23.0278 22.7649 21.8832 22.7649C20.7386 22.7649 19.8207 21.8444 19.8207 20.7181V11.0976C19.8207 10.6004 20.0747 10.1419 20.4923 9.88555L20.4965 9.88294L23.0575 8.29331C23.0581 8.29292 23.0588 8.29254 23.0594 8.29215C23.6858 7.90768 24.4002 7.70245 25.1294 7.70245H32.9541H33.2209L33.4522 7.56957L41.3674 3.02293C41.3677 3.02275 41.368 3.02258 41.3683 3.02241C42.0679 2.6227 42.9563 2.8644 43.3507 3.54669L43.3515 3.54802L49.4757 14.1041C49.4759 14.1045 49.4762 14.1048 49.4764 14.1052C49.8712 14.7895 49.6408 15.6631 48.9461 16.0661C48.9457 16.0663 48.9452 16.0666 48.9448 16.0668L44.3207 18.7236Z" stroke="#F65050" stroke-width="2"/>
</svg>
