<svg width="30" height="30" viewBox="0 0 30 30" fill="none" xmlns="http://www.w3.org/2000/svg">
<path d="M28.6755 0.0605469H1.32445C0.594141 0.0605469 0 0.778 0 1.65989V28.3401C0 29.222 0.594141 29.9394 1.32445 29.9394H28.6755C29.4059 29.9394 30 29.222 30 28.3401V1.65989C30 0.778 29.4059 0.0605469 28.6755 0.0605469ZM28.6755 28.3401L1.32451 28.3411C1.32451 28.3411 1.32445 28.3408 1.32445 28.3401V1.65989H28.6755V28.3401Z" fill="white"/>
<path d="M26.1899 3.86182H3.80993C3.44425 3.86182 3.14771 4.21991 3.14771 4.66149V22.336C3.14771 22.7776 3.44425 23.1356 3.80993 23.1356H26.1898C26.5555 23.1356 26.852 22.7775 26.852 22.3359V4.66149C26.8521 4.21991 26.5556 3.86182 26.1899 3.86182ZM4.47216 5.46116H25.5276V18.9989L21.3541 13.9598C21.0956 13.6476 20.6763 13.6476 20.4176 13.9598L17.8734 17.032L12.0398 9.98769C11.7812 9.67566 11.3619 9.67552 11.1033 9.98769L4.47222 17.9943V5.46116H4.47216ZM4.47216 21.5362V20.2559L11.5715 11.684L19.7303 21.5362H4.47216ZM25.5277 21.5363H21.6035V21.5362L18.81 18.1629L20.8859 15.6561L25.3755 21.0767C25.4216 21.1325 25.4731 21.1779 25.5276 21.2137V21.5363H25.5277Z" fill="white"/>
<path d="M17.8328 6.97852C16.4523 6.97852 15.3291 8.33474 15.3291 10.0018C15.3291 11.6688 16.4522 13.0251 17.8328 13.0251C19.2133 13.0251 20.3364 11.6688 20.3364 10.0018C20.3364 8.33474 19.2132 6.97852 17.8328 6.97852ZM17.8328 11.4257C17.1825 11.4257 16.6536 10.787 16.6536 10.0018C16.6536 9.21663 17.1825 8.57793 17.8328 8.57793C18.4829 8.57793 19.0119 9.21663 19.0119 10.0018C19.0119 10.787 18.483 11.4257 17.8328 11.4257Z" fill="white"/>
<path d="M9.57017 24.938H3.80993C3.44425 24.938 3.14771 25.2961 3.14771 25.7377C3.14771 26.1793 3.44425 26.5373 3.80993 26.5373H9.57017C9.93591 26.5373 10.2324 26.1792 10.2324 25.7377C10.2324 25.2961 9.93591 24.938 9.57017 24.938Z" fill="white"/>
<path d="M14.1028 24.938H12.5919C12.2262 24.938 11.9297 25.2961 11.9297 25.7377C11.9297 26.1792 12.2262 26.5373 12.5919 26.5373H14.1028C14.4685 26.5373 14.765 26.1792 14.765 25.7377C14.765 25.2961 14.4684 24.938 14.1028 24.938Z" fill="white"/>
</svg>
