<svg width="583" height="323" viewBox="0 0 583 323" fill="none" xmlns="http://www.w3.org/2000/svg">
<g filter="url(#filter0_i)">
<path fill-rule="evenodd" clip-rule="evenodd" d="M52.1216 0H530.062C537.456 0 543.45 6.42161 543.45 14.3431V299.77C543.45 307.692 537.456 314.113 530.062 314.113H52.1216C44.7278 314.113 38.7339 307.692 38.7339 299.77V14.3431C38.7339 6.42161 44.7278 0 52.1216 0Z" fill="#24292F"/>
<path fill-rule="evenodd" clip-rule="evenodd" d="M52.1216 0H530.062C537.456 0 543.45 6.42161 543.45 14.3431V299.77C543.45 307.692 537.456 314.113 530.062 314.113H52.1216C44.7278 314.113 38.7339 307.692 38.7339 299.77V14.3431C38.7339 6.42161 44.7278 0 52.1216 0Z" fill="url(#paint0_linear)"/>
</g>
<mask id="mask0" mask-type="alpha" maskUnits="userSpaceOnUse" x="38" y="0" width="506" height="315">
<path fill-rule="evenodd" clip-rule="evenodd" d="M52.1216 0H530.062C537.456 0 543.45 6.42161 543.45 14.3431V299.77C543.45 307.692 537.456 314.113 530.062 314.113H52.1216C44.7278 314.113 38.7339 307.692 38.7339 299.77V14.3431C38.7339 6.42161 44.7278 0 52.1216 0Z" fill="white"/>
</mask>
<g mask="url(#mask0)">
<path d="M287.78 10.4196C287.78 9.43253 288.58 8.63235 289.567 8.63235C290.554 8.63235 291.354 9.43253 291.354 10.4196C291.354 11.4066 290.554 12.2068 289.567 12.2068C288.58 12.2068 287.78 11.4066 287.78 10.4196Z" fill="url(#paint1_linear)" stroke="url(#paint2_linear)"/>
<g filter="url(#filter1_i)">
<path fill-rule="evenodd" clip-rule="evenodd" d="M38.7339 295.815H543.45V314.113H38.7339V295.815Z" fill="#34383D"/>
</g>
<path fill-rule="evenodd" clip-rule="evenodd" d="M530.062 0H52.1216C44.7278 0 38.7339 6.42161 38.7339 14.3431V299.77C38.7339 307.692 44.7278 314.113 52.1216 314.113H530.062C537.456 314.113 543.45 307.692 543.45 299.77V14.3431C543.45 6.42161 537.456 0 530.062 0ZM41.7839 14.3431C41.7839 8.06068 46.4612 3.04963 52.1219 3.04963H530.063C535.723 3.04963 540.401 8.06068 540.401 14.3431V299.77C540.401 306.053 535.723 311.064 530.063 311.064H52.1219C46.4612 311.064 41.7839 306.053 41.7839 299.77V14.3431Z" fill="url(#paint3_linear)"/>
</g>
<g filter="url(#filter2_i)">
<path fill-rule="evenodd" clip-rule="evenodd" d="M64.0215 322.754C49.4367 322.754 20.6616 320.367 6.75386 315.676L0.613281 313.605L582.994 313.605L576.854 315.676C562.946 320.367 532.844 322.754 518.259 322.754H64.0215Z" fill="#878D9E"/>
<path fill-rule="evenodd" clip-rule="evenodd" d="M64.0215 322.754C49.4367 322.754 20.6616 320.367 6.75386 315.676L0.613281 313.605L582.994 313.605L576.854 315.676C562.946 320.367 532.844 322.754 518.259 322.754H64.0215Z" fill="url(#paint4_radial)"/>
<path fill-rule="evenodd" clip-rule="evenodd" d="M64.0215 322.754C49.4367 322.754 20.6616 320.367 6.75386 315.676L0.613281 313.605L582.994 313.605L576.854 315.676C562.946 320.367 532.844 322.754 518.259 322.754H64.0215Z" fill="url(#paint5_radial)"/>
</g>
<path fill-rule="evenodd" clip-rule="evenodd" d="M0.613281 313.602C0.613281 313.602 0.904976 312.615 1.28036 312.588L21.8414 311.124C22.4104 311.084 22.9805 311.064 23.5508 311.064L560.064 311.064C560.634 311.064 561.205 311.084 561.774 311.124L582.335 312.588C582.728 312.616 583 313.602 583 313.602H0.613281Z" fill="#9BA0B0"/>
<path fill-rule="evenodd" clip-rule="evenodd" d="M0.613281 313.602C0.613281 313.602 0.904976 312.615 1.28036 312.588L21.8414 311.124C22.4104 311.084 22.9805 311.064 23.5508 311.064L560.064 311.064C560.634 311.064 561.205 311.084 561.774 311.124L582.335 312.588C582.728 312.616 583 313.602 583 313.602H0.613281Z" fill="url(#paint6_linear)"/>
<path fill-rule="evenodd" clip-rule="evenodd" d="M0.613281 313.602C0.613281 313.602 0.904976 312.615 1.28036 312.588L21.8414 311.124C22.4104 311.084 22.9805 311.064 23.5508 311.064L560.064 311.064C560.634 311.064 561.205 311.084 561.774 311.124L582.335 312.588C582.728 312.616 583 313.602 583 313.602H0.613281Z" fill="url(#paint7_linear)"/>
<mask id="mask1" mask-type="alpha" maskUnits="userSpaceOnUse" x="0" y="311" width="584" height="3">
<path fill-rule="evenodd" clip-rule="evenodd" d="M0.613281 313.602C0.613281 313.602 0.904976 312.615 1.28036 312.588L21.8414 311.124C22.4104 311.084 22.9805 311.064 23.5508 311.064L560.064 311.064C560.634 311.064 561.205 311.084 561.774 311.124L582.335 312.588C582.728 312.616 583 313.602 583 313.602H0.613281Z" fill="white"/>
</mask>
<g mask="url(#mask1)">
<path fill-rule="evenodd" clip-rule="evenodd" d="M0.613281 312.588H583.095V315.638H0.613281V312.588Z" fill="#D8D8D8"/>
</g>
<g filter="url(#filter3_ii)">
<path fill-rule="evenodd" clip-rule="evenodd" d="M354.768 315.638H226.085C223.719 315.638 223.327 315.115 223.327 312.588L357.526 312.588C357.526 315.115 357.133 315.638 354.768 315.638Z" fill="#D2D4DB"/>
</g>
<path fill-rule="evenodd" clip-rule="evenodd" d="M19.4194 310.047H564.289V311.572H19.4194V310.047Z" fill="#616872"/>
<path d="M54.4819 19.8144H526.177V281.084H54.4819V19.8144Z" fill="url(#paint8_linear)" stroke="#34373A"/>
<defs>
<filter id="filter0_i" x="38.7339" y="-2" width="504.716" height="316.113" filterUnits="userSpaceOnUse" color-interpolation-filters="sRGB">
<feFlood flood-opacity="0" result="BackgroundImageFix"/>
<feBlend mode="normal" in="SourceGraphic" in2="BackgroundImageFix" result="shape"/>
<feColorMatrix in="SourceAlpha" type="matrix" values="0 0 0 0 0 0 0 0 0 0 0 0 0 0 0 0 0 0 127 0" result="hardAlpha"/>
<feOffset dy="-3"/>
<feGaussianBlur stdDeviation="1"/>
<feComposite in2="hardAlpha" operator="arithmetic" k2="-1" k3="1"/>
<feColorMatrix type="matrix" values="0 0 0 0 0 0 0 0 0 0 0 0 0 0 0 0 0 0 1 0"/>
<feBlend mode="normal" in2="shape" result="effect1_innerShadow"/>
</filter>
<filter id="filter1_i" x="38.7339" y="285.815" width="504.716" height="28.2979" filterUnits="userSpaceOnUse" color-interpolation-filters="sRGB">
<feFlood flood-opacity="0" result="BackgroundImageFix"/>
<feBlend mode="normal" in="SourceGraphic" in2="BackgroundImageFix" result="shape"/>
<feColorMatrix in="SourceAlpha" type="matrix" values="0 0 0 0 0 0 0 0 0 0 0 0 0 0 0 0 0 0 127 0" result="hardAlpha"/>
<feOffset dy="-12"/>
<feGaussianBlur stdDeviation="5"/>
<feComposite in2="hardAlpha" operator="arithmetic" k2="-1" k3="1"/>
<feColorMatrix type="matrix" values="0 0 0 0 0 0 0 0 0 0 0 0 0 0 0 0 0 0 0.189198 0"/>
<feBlend mode="normal" in2="shape" result="effect1_innerShadow"/>
</filter>
<filter id="filter2_i" x="0.613281" y="307.605" width="582.381" height="15.1489" filterUnits="userSpaceOnUse" color-interpolation-filters="sRGB">
<feFlood flood-opacity="0" result="BackgroundImageFix"/>
<feBlend mode="normal" in="SourceGraphic" in2="BackgroundImageFix" result="shape"/>
<feColorMatrix in="SourceAlpha" type="matrix" values="0 0 0 0 0 0 0 0 0 0 0 0 0 0 0 0 0 0 127 0" result="hardAlpha"/>
<feOffset dy="-6"/>
<feGaussianBlur stdDeviation="5.5"/>
<feComposite in2="hardAlpha" operator="arithmetic" k2="-1" k3="1"/>
<feColorMatrix type="matrix" values="0 0 0 0 0 0 0 0 0 0 0 0 0 0 0 0 0 0 0.485762 0"/>
<feBlend mode="normal" in2="shape" result="effect1_innerShadow"/>
</filter>
<filter id="filter3_ii" x="221.327" y="312.588" width="138.199" height="3.04964" filterUnits="userSpaceOnUse" color-interpolation-filters="sRGB">
<feFlood flood-opacity="0" result="BackgroundImageFix"/>
<feBlend mode="normal" in="SourceGraphic" in2="BackgroundImageFix" result="shape"/>
<feColorMatrix in="SourceAlpha" type="matrix" values="0 0 0 0 0 0 0 0 0 0 0 0 0 0 0 0 0 0 127 0" result="hardAlpha"/>
<feOffset dx="3"/>
<feGaussianBlur stdDeviation="1"/>
<feComposite in2="hardAlpha" operator="arithmetic" k2="-1" k3="1"/>
<feColorMatrix type="matrix" values="0 0 0 0 0 0 0 0 0 0 0 0 0 0 0 0 0 0 0.297668 0"/>
<feBlend mode="normal" in2="shape" result="effect1_innerShadow"/>
<feColorMatrix in="SourceAlpha" type="matrix" values="0 0 0 0 0 0 0 0 0 0 0 0 0 0 0 0 0 0 127 0" result="hardAlpha"/>
<feOffset dx="-3"/>
<feGaussianBlur stdDeviation="1"/>
<feComposite in2="hardAlpha" operator="arithmetic" k2="-1" k3="1"/>
<feColorMatrix type="matrix" values="0 0 0 0 0 0 0 0 0 0 0 0 0 0 0 0 0 0 0.297668 0"/>
<feBlend mode="normal" in2="effect1_innerShadow" result="effect2_innerShadow"/>
</filter>
<linearGradient id="paint0_linear" x1="-229.171" y1="218.193" x2="108.854" y2="644.288" gradientUnits="userSpaceOnUse">
<stop stop-color="#33383E"/>
<stop offset="1" stop-opacity="0.01"/>
</linearGradient>
<linearGradient id="paint1_linear" x1="287.302" y1="8.13235" x2="287.302" y2="12.6626" gradientUnits="userSpaceOnUse">
<stop/>
<stop offset="1" stop-color="#585656"/>
</linearGradient>
<linearGradient id="paint2_linear" x1="287.319" y1="8.13235" x2="287.319" y2="12.6276" gradientUnits="userSpaceOnUse">
<stop/>
<stop offset="1" stop-color="#333232"/>
</linearGradient>
<linearGradient id="paint3_linear" x1="-65.126" y1="105.755" x2="100.521" y2="480.639" gradientUnits="userSpaceOnUse">
<stop stop-color="#5D636B"/>
<stop offset="1" stop-color="#373E45"/>
</linearGradient>
<radialGradient id="paint4_radial" cx="0" cy="0" r="1" gradientUnits="userSpaceOnUse" gradientTransform="translate(291.804 313.605) rotate(90) scale(8.88162 8375.16)">
<stop stop-opacity="0.287562"/>
<stop offset="1" stop-color="white" stop-opacity="0.01"/>
</radialGradient>
<radialGradient id="paint5_radial" cx="0" cy="0" r="1" gradientUnits="userSpaceOnUse" gradientTransform="translate(-23.8476 320.088) rotate(96.1705) scale(21.9548 2708.88)">
<stop stop-color="#9EA2B2"/>
<stop offset="1" stop-color="white" stop-opacity="0.01"/>
</radialGradient>
<linearGradient id="paint6_linear" x1="1297.63" y1="316.715" x2="1297.62" y2="309.171" gradientUnits="userSpaceOnUse">
<stop stop-color="white" stop-opacity="0.238479"/>
<stop offset="1" stop-color="white" stop-opacity="0.01"/>
</linearGradient>
<linearGradient id="paint7_linear" x1="-1734.84" y1="299.536" x2="-1734.84" y2="317.004" gradientUnits="userSpaceOnUse">
<stop stop-color="white" stop-opacity="0.01"/>
<stop offset="0.551663" stop-color="#868686" stop-opacity="0.5"/>
<stop offset="1" stop-color="white" stop-opacity="0.01"/>
</linearGradient>
<linearGradient id="paint8_linear" x1="28.9385" y1="81.6034" x2="594.111" y2="128.232" gradientUnits="userSpaceOnUse">
<stop stop-color="#CC18BC"/>
<stop offset="1" stop-color="#FF8340"/>
</linearGradient>
</defs>
</svg>
