<svg width="42" height="41" viewBox="0 0 42 41" fill="none" xmlns="http://www.w3.org/2000/svg">
<path fill-rule="evenodd" clip-rule="evenodd" d="M21.4987 2.87181C26.0969 2.87181 30.2836 4.63387 33.422 7.5188C31.8837 7.47752 30.3487 8.39189 30.2852 10.4857C30.1558 14.7186 35.3467 15.6203 32.5497 24.1345L30.236 31.1772L23.9346 12.6153C23.837 12.3279 23.9505 12.1644 24.3037 12.1644H26.0852C26.1778 12.1644 26.2535 12.0854 26.2535 11.9886V10.9334C26.2535 10.8366 26.1776 10.7536 26.0852 10.7576C22.7115 10.9051 19.3577 10.9061 16.024 10.7576C15.9312 10.7536 15.8558 10.8369 15.8558 10.9338V11.9889C15.8558 12.0856 15.9315 12.1648 16.0241 12.1648H17.8153C18.2138 12.1648 18.3253 12.2976 18.4193 12.5544L21.0084 19.6352L17.1136 31.3957L10.7115 12.5385C10.6321 12.302 10.7281 12.1647 10.9559 12.1647H12.997C13.0895 12.1647 13.1652 12.0856 13.1652 11.9888V10.9337C13.1652 10.8369 13.0893 10.753 12.997 10.7578C10.8555 10.8716 8.70589 10.8945 6.70349 10.915C9.84575 6.07459 15.2979 2.87146 21.4976 2.87146L21.4976 2.87141L21.4987 2.87181ZM37.0016 12.1051C38.3561 14.6007 39.1252 17.4599 39.1252 20.4979C39.1252 27.1656 35.4206 32.9688 29.9586 35.9643L35.4559 20.3939C36.3075 17.9842 37.0981 14.7276 37.0013 12.1051H37.0012H37.0016ZM27.4 37.1105C25.5546 37.7669 23.5687 38.1248 21.4987 38.1248C19.7152 38.1248 17.9945 37.8589 16.3721 37.3668L21.8023 21.8052L27.3999 37.1113L27.4 37.1105ZM13.956 36.4326C7.9951 33.6056 3.8718 27.5327 3.8718 20.4987C3.8718 17.8912 4.43904 15.4159 5.45567 13.1889L13.9564 36.4329L13.9564 36.4329L13.956 36.4326ZM21.4982 1.2177C32.1443 1.2177 40.7784 9.85178 40.7784 20.4979C40.7784 31.1441 32.1443 39.7782 21.4982 39.7782C10.852 39.7782 2.21793 31.1441 2.21793 20.4979C2.21793 9.85178 10.852 1.2177 21.4982 1.2177ZM21.4982 -0.000976562C32.8174 -0.000976562 41.9976 9.17918 41.9976 20.4984C41.9976 31.8176 32.8174 40.9978 21.4982 40.9978C10.1789 40.9978 0.998779 31.8176 0.998779 20.4984C0.998779 9.17918 10.1789 -0.000976562 21.4982 -0.000976562Z" fill="#9F9794"/>
</svg>
